[
  {
    "id": 1,
    "version": 1,
    "added": "2014-06-25T00:00:00.000Z",
    "concurso": "ENG. TEL",
    "questao": 2,
    "ano": "2019-00-00",
    "free": true,
    "tipo": "multi",
    "img": "",
    "autor": "Jonatan William Riberiro dos Santos",
    "vars": {},
    "tags": [
      {
        "nome": "Eletricidade",
        "link": "/conteudo/eletricidade"
      }
    ],
    "enunciado": "Preencha as lacunas e, em seguida assinale a alternativa correta. Um sistema de transmissão de voz é composto, no transmissor, por um transdutor que converte a voz humana em sinais analógicos, o ____________________, e no receptor, por um segundo transdutor que converte o sinal elétrico em sinal sonoro, o ____________________.",
    "alternativas": [
      {
        "alternativa": "a",
        "texto": "alto-falante / microfone",
        "resposta": true,
        "fonte": "MEDEIROS, Júlio César de Oliveira. Princípios de Telecomunicações – Teoria e Prática. São Paulo: Érica, 2005",
        "justificativa": "Unico componente capaz de transformar um sinal"
      },
      {
        "alternativa": "b",
        "texto": "microfone / alto-falante"
      },
      {
        "alternativa": "c",
        "texto": "modulador / demodulador"
      },
      {
        "alternativa": "d",
        "texto": "codificador / decodificador"
      }
    ]
  },
  {
    "id": 2,
    "version": 1,
    "added": "2014-06-25T00:00:00.000Z",
    "concurso": "CP-CEM",
    "questao": 9,
    "ano": "2017",
    "img": "",
    "free": true,
    "tipo": "aberta",
    "vars": {
      "d": {
        "name": "d",
        "value": 10,
        "suffix": "cm",
        "hint": "Diâmetro"
      },
      "h": {
        "name": "h",
        "value": 10.73,
        "suffix": "cm",
        "hint": "Altura cilindro"
      },
      "m": {
        "name": "m",
        "value": 1.943,
        "suffix": "kg",
        "hint": "Massa corpo de prova"
      },
      "u": {
        "name": "u",
        "value": 22.13,
        "suffix": "%",
        "hint": "Umidade corpo de prova"
      },
      "gamma": {
        "name": "gamma",
        "value": 2.65,
        "suffix": "g/cm3",
        "hint": "Massa específica dos grãos"
      }
    },
    "tags": [
      {
        "nome": "Ensaio de compactação",
        "link": "/conteudo/compactacao"
      },
      {
        "nome": "Proctor",
        "link": "/conteudo/proctor"
      }
    ],
    "enunciado": "Para a realização de um ensaio de compactação, foram moldados corpos de prova de um determinado solo, utilizando-se moldes cilíndricos com 10 cm de diâmetro e 10.73 cm de altura, seguindo-se o procedimento do Ensaio de Proctor Normal. Em uma das amostras, obteve-se um corpo de prova com massa de 1.943 kg e umidade 22.13 %. Considerando que a massa específica dos grãos seja de 2.65 g/cm3, determine a densidade seca e o grau de saturação desse corpo de prova."
  }
]
